SNV	CHROM	POS
1:1541728_G>A	chr1	  1541728
1:1541864_T>C	chr1	  1541864
1:156137743_C>T	chr1	156137743
10:17237563_G>T	chr10	 17237563
11:61964505_G>A	chr11	 61964505
11:64321744_C>G	chr11	 64321744
11:67586499_T>C	chr11	 67586499
11:77872220_G>A	chr11	 77872220
12:6537943_T>C	chr12	  6537943
12:6538287_G>T	chr12	  6538287
12:52248734_G>A	chr12	 52248734
15:34341832_A>G	chr15	 34341832
15:34341923_C>G	chr15	 34341923
15:34341937_G>A	chr15	 34341937
15:34341938_T>C	chr15	 34341938
16:1961873_A>G	chr16	  1961873
17:7312217_T>C	chr17	  7312217
17:48930601_C>T	chr17	 48930601
19:3976165_C>G	chr19	  3976165
19:18178000_A>G	chr19	 18178000
2:42350625_G>A	chr2	 42350625
2:42350685_A>G	chr2	 42350685
2:237324168_T>A	chr2	237324168
21:46132710_C>T	chr21	 46132710
22:31105005_G>A	chr22	 31105005
22:43163131_G>T	chr22	 43163131
3:12836078_C>T	chr3	 12836078
3:23919726_G>A	chr3	 23919726
3:197850369_C>T	chr3	197850369
5:151662468_G>A	chr5	151662468
5:151662618_A>C	chr5	151662618
6:31839689_A>G	chr6	 31839689
6:85678170_G>T	chr6	 85678170
7:44468320_G>A	chr7	 44468320
7:98291311_A>G	chr7	 98291311
7:133034532_A>G	chr7	133034532
8:22594175_G>C	chr8	 22594175
9:129722503_T>C	chr9	129722503
9:129722514_C>G	chr9	129722514
X:47586541_C>T	chrX	 47586541
1:16014266_T>C	chr1	 16014266
10:86970555_T>C	chr10	 86970555
10:86970617_C>T	chr10	 86970617
12:16364098_T>G	chr12	 16364098
12:118145427_T>C	chr12	118145427
15:73951937_C>G	chr15	 73951937
17:48026394_A>G	chr17	 48026394
17:83094678_A>G	chr17	 83094678
19:10115101_A>G	chr19	 10115101
2:27377008_T>G	chr2	 27377008
2:236571466_C>T	chr2	236571466
22:43162966_G>A	chr22	 43162966
4:77048097_C>T	chr4	 77048097
5:151661589_G>C	chr5	151661589
6:31669957_A>T	chr6	 31669957
1:19623568_T>C	chr1	 19623568
1:115337511_G>A	chr1	115337511
10:100986474_C>T	chr10	100986474
10:102676884_C>T	chr10	102676884
15:73952003_C>T	chr15	 73952003
16:8855117_T>C	chr16	  8855117
17:2043209_C>G	chr17	  2043209
17:3662938_C>T	chr17	  3662938
17:7857079_G>A	chr17	  7857079
2:237324109_C>A	chr2	237324109
3:51389119_G>A	chr3	 51389119
6:26104052_T>C	chr6	 26104052
6:85495605_T>G	chr6	 85495605
6:158636705_C>T	chr6	158636705
1:201465612_G>A	chr1	201465612
12:13216640_A>G	chr12	 13216640
17:77500378_T>C	chr17	 77500378
2:96185092_T>A	chr2	 96185092
1:31908724_G>A	chr1	 31908724
1:183145499_G>A	chr1	183145499
16:88643420_A>G	chr16	 88643420
17:42125092_C>G	chr17	 42125092
17:82036043_C>T	chr17	 82036043
19:8311547_G>A	chr19	  8311547
2:203191318_T>C	chr2	203191318
3:48599152_G>A	chr3	 48599152
13:27623299_C>T	chr13	 27623299
2:73958749_A>T	chr2	 73958749
3:170866285_A>G	chr3	170866285
5:133972170_C>A	chr5	133972170
5:177306615_T>C	chr5	177306615
7:997189_G>A	chr7	   997189
7:94398387_T>C	chr7	 94398387
1:11750617_G>A	chr1	 11750617
1:11750634_C>T	chr1	 11750634
1:54218183_C>G	chr1	 54218183
1:54218252_G>A	chr1	 54218252
22:36281354_G>A	chr22	 36281354
3:49357203_T>C	chr3	 49357203
5:176392620_T>C	chr5	176392620
5:177306115_A>G	chr5	177306115
6:85678734_A>C	chr6	 85678734
7:128859025_G>A	chr7	128859025
1:225790266_C>T	chr1	225790266
7:997163_G>A	chr7	   997163
9:129722364_A>C	chr9	129722364
13:43107291_G>A	chr13	 43107291
9:127451369_G>A	chr9	127451369
6:36964795_T>C	chr6	 36964795
1:20652339_T>C	chr1	 20652339
1:53085380_T>C	chr1	 53085380
1:77129698_G>C	chr1	 77129698
1:228148952_T>A	chr1	228148952
10:103396466_G>C	chr10	103396466
14:34568651_A>C	chr14	 34568651
15:59638932_A>G	chr15	 59638932
2:241353794_C>A	chr2	241353794
20:10413820_T>C	chr20	 10413820
4:39498894_T>C	chr4	 39498894
6:36964551_A>G	chr6	 36964551
9:137039568_G>A	chr9	137039568
X:23836642_C>G	chrX	 23836642
15:32734466_A>T	chr15	 32734466
17:4798107_C>T	chr17	  4798107
8:69660769_G>A	chr8	 69660769
14:74942064_G>T	chr14	 74942064
14:74942086_T>C	chr14	 74942086
1:40072429_G>A	chr1	 40072429
13:110512918_G>C	chr13	110512918
17:7578807_A>G	chr17	  7578807
2:1633429_C>T	chr2	  1633429
6:31415105_C>A	chr6	 31415105
9:127867954_G>T	chr9	127867954
1:151401549_T>C	chr1	151401549
19:15159772_G>A	chr19	 15159772
1:240531955_C>T	chr1	240531955
10:7807725_T>C	chr10	  7807725
19:2732743_G>A	chr19	  2732743
2:105361089_G>A	chr2	105361089
19:50797800_T>C	chr19	 50797800
20:3753739_T>C	chr20	  3753739
8:27672859_G>C	chr8	 27672859
14:104937340_A>G	chr14	104937340
2:120294558_C>A	chr2	120294558
2:238910401_A>T	chr2	238910401
3:170866275_A>C	chr3	170866275
6:31727266_A>G	chr6	 31727266
8:27672958_C>T	chr8	 27672958
5:69228306_A>G	chr5	 69228306
17:59842094_T>G	chr17	 59842094
6:132814747_A>G	chr6	132814747
8:53966723_T>C	chr8	 53966723
16:717430_C>G	chr16	   717430
17:76565131_A>G	chr17	 76565131
6:169216252_T>C	chr6	169216252
19:14471656_G>A	chr19	 14471656
10:3779369_G>A	chr10	  3779369
19:48875910_C>T	chr19	 48875910
19:48875925_G>C	chr19	 48875925
X:71301032_A>G	chrX	 71301032
21:46129596_G>C	chr21	 46129596
21:46129655_T>C	chr21	 46129655
11:19351622_C>T	chr11	 19351622
11:65854816_A>T	chr11	 65854816
12:52286153_C>G	chr12	 52286153
13:46771417_C>T	chr13	 46771417
22:50523779_T>G	chr22	 50523779
3:141925932_G>C	chr3	141925932
9:37436928_A>G	chr9	 37436928
10:3779135_A>T	chr10	  3779135
10:4977767_G>A	chr10	  4977767
11:35229771_C>T	chr11	 35229771
2:130346476_C>T	chr2	130346476
20:17608160_T>C	chr20	 17608160
11:68036292_C>T	chr11	 68036292
11:66337522_C>T	chr11	 66337522
19:15159854_C>T	chr19	 15159854
22:23895034_C>G	chr22	 23895034
14:22564938_G>A	chr14	 22564938
19:863220_C>G	chr19	   863220
2:74969604_A>G	chr2	 74969604
3:184308915_C>T	chr3	184308915
4:56490422_A>G	chr4	 56490422
5:168666259_G>A	chr5	168666259
4:3512687_A>C	chr4	  3512687
6:138404540_G>A	chr6	138404540
6:138412892_A>C	chr6	138412892
1:16015154_C>T	chr1	 16015154
2:46858867_C>T	chr2	 46858867
2:46858873_G>A	chr2	 46858873
6:18264427_G>A	chr6	 18264427
9:136362089_C>T	chr9	136362089
11:309127_A>G	chr11	   309127
1:165655562_G>T	chr1	165655562
16:84565924_A>G	chr16	 84565924
5:95748427_G>A	chr5	 95748427
9:136362016_C>G	chr9	136362016
1:43991070_C>T	chr1	 43991070
14:105250942_T>C	chr14	105250942
16:84565616_A>T	chr16	 84565616
19:1242575_G>C	chr19	  1242575
19:16102851_T>A	chr19	 16102851
19:16102854_T>A	chr19	 16102854
10:79240763_A>C	chr10	 79240763
4:153781265_C>G	chr4	153781265
10:3136623_G>C	chr10	  3136623
2:27381412_A>G	chr2	 27381412
2:73729997_A>G	chr2	 73729997
1:179076338_G>A	chr1	179076338
10:3136612_G>A	chr10	  3136612
10:95237722_A>C	chr10	 95237722
11:110255306_T>C	chr11	110255306
12:52286224_T>C	chr12	 52286224
12:103934201_C>T	chr12	103934201
17:40396397_C>T	chr17	 40396397
19:11553206_G>A	chr19	 11553206
6:36602589_T>C	chr6	 36602589
6:151101699_C>G	chr6	151101699
7:43625026_G>T	chr7	 43625026
9:89316518_T>C	chr9	 89316518
2:217799910_T>G	chr2	217799910
2:238910074_T>C	chr2	238910074
11:33705434_A>G	chr11	 33705434
22:38483683_G>A	chr22	 38483683
8:1762811_A>C	chr8	  1762811
7:101161177_G>A	chr7	101161177
9:137108975_A>G	chr9	137108975
16:2209190_T>C	chr16	  2209190
1:183142906_G>C	chr1	183142906
7:113116939_G>A	chr7	113116939
19:55132957_C>A	chr19	 55132957
4:25929703_G>A	chr4	 25929703
8:143612720_G>C	chr8	143612720
4:185190485_T>C	chr4	185190485
17:76387597_G>A	chr17	 76387597
12:120210685_G>A	chr12	120210685
9:33110695_A>C	chr9	 33110695
10:95237678_T>C	chr10	 95237678
11:252733_T>C	chr11	   252733
11:252735_T>C	chr11	   252735
2:108687039_C>A	chr2	108687039
19:50725545_T>G	chr19	 50725545
10:71302731_G>A	chr10	 71302731
16:75229126_T>A	chr16	 75229126
18:58481336_C>T	chr18	 58481336
19:35547488_A>G	chr19	 35547488
22:38684240_A>G	chr22	 38684240
8:130052907_C>T	chr8	130052907
15:66493961_C>T	chr15	 66493961
2:161339780_C>T	chr2	161339780
19:16646735_T>C	chr19	 16646735
16:15038105_A>G	chr16	 15038105
19:5205707_C>T	chr19	  5205707
8:63015187_T>C	chr8	 63015187
5:179837915_G>T	chr5	179837915
14:60144957_G>A	chr14	 60144957
6:169216328_C>T	chr6	169216328
19:2426602_G>A	chr19	  2426602
19:18178088_T>C	chr19	 18178088
19:50797973_G>A	chr19	 50797973
14:75470319_G>A	chr14	 75470319
6:26104297_C>A	chr6	 26104297
19:47275600_C>G	chr19	 47275600
22:20587445_A>T	chr22	 20587445
11:494942_G>C	chr11	   494942
11:65504361_C>T	chr11	 65504361
16:15038117_G>T	chr16	 15038117
11:1938477_C>T	chr11	  1938477
17:82614752_A>G	chr17	 82614752
2:46858809_C>G	chr2	 46858809
2:46858815_C>T	chr2	 46858815
6:21598493_G>A	chr6	 21598493
1:156292862_A>C	chr1	156292862
13:21177418_T>C	chr13	 21177418
6:31639200_C>T	chr6	 31639200
19:11450814_T>C	chr19	 11450814
20:3048065_G>A	chr20	  3048065
16:23690217_A>G	chr16	 23690217
4:146189780_A>G	chr4	146189780
10:117490872_G>A	chr10	117490872
16:1997810_T>C	chr16	  1997810
13:30460956_T>C	chr13	 30460956
3:9780230_C>T	chr3	  9780230
11:88326130_A>T	chr11	 88326130
4:182503105_T>C	chr4	182503105
7:43639398_T>C	chr7	 43639398
3:196049369_C>T	chr3	196049369
3:86989097_C>T	chr3	 86989097
6:26055844_G>C	chr6	 26055844
7:42937644_T>C	chr7	 42937644
1:109737079_C>T	chr1	109737079
6:30346790_C>A	chr6	 30346790
14:60144930_C>T	chr14	 60144930
1:12568159_T>C	chr1	 12568159
11:4138699_C>A	chr11	  4138699
16:88643304_A>G	chr16	 88643304
8:11838843_T>C	chr8	 11838843
X:40606516_A>G	chrX	 40606516
X:40606564_T>C	chrX	 40606564
17:1400164_C>G	chr17	  1400164
6:151358403_T>A	chr6	151358403
5:103029482_G>A	chr5	103029482
X:72196871_C>T	chrX	 72196871
14:51730456_T>A	chr14	 51730456
3:50649086_C>A	chr3	 50649086
4:79905758_A>C	chr4	 79905758
2:129923637_G>C	chr2	129923637
5:111731000_T>C	chr5	111731000
8:60621869_A>G	chr8	 60621869
17:68125666_C>T	chr17	 68125666
22:38734838_C>G	chr22	 38734838
3:149027449_A>G	chr3	149027449
4:56461239_T>C	chr4	 56461239
20:1443658_G>A	chr20	  1443658
4:139295084_C>T	chr4	139295084
11:12263543_C>T	chr11	 12263543
9:129347349_G>A	chr9	129347349
16:400309_C>T	chr16	   400309
12:121308603_G>A	chr12	121308603
10:102816113_A>G	chr10	102816113
10:12250455_A>G	chr10	 12250455
1:162784045_T>C	chr1	162784045
14:100144128_G>A	chr14	100144128
1:31434610_A>G	chr1	 31434610
10:86963108_C>T	chr10	 86963108
15:60362840_T>C	chr15	 60362840
15:79899001_G>A	chr15	 79899001
10:95237832_A>G	chr10	 95237832
17:3662915_G>C	chr17	  3662915
17:3662919_G>A	chr17	  3662919
12:49764761_A>G	chr12	 49764761
22:50526017_A>T	chr22	 50526017
21:46099112_G>T	chr21	 46099112
3:156540216_C>T	chr3	156540216
11:72003032_T>C	chr11	 72003032
21:36146408_G>A	chr21	 36146408
6:151269151_G>A	chr6	151269151
10:5107511_G>A	chr10	  5107511
3:69105235_T>A	chr3	 69105235
19:18307234_T>C	chr19	 18307234
17:80999968_T>C	chr17	 80999968
6:143495722_C>T	chr6	143495722
11:123073094_T>C	chr11	123073094
13:36111167_A>G	chr13	 36111167
10:3136716_T>C	chr10	  3136716
6:166322874_C>T	chr6	166322874
17:20999755_C>A	chr17	 20999755
17:20999767_C>A	chr17	 20999767
5:157739590_C>T	chr5	157739590
1:50974421_C>T	chr1	 50974421
12:47968629_G>C	chr12	 47968629
10:12250485_G>A	chr10	 12250485
16:2771572_C>T	chr16	  2771572
6:151358463_G>C	chr6	151358463
5:6372135_G>A	chr5	  6372135
12:6839718_A>C	chr12	  6839718
19:10994932_T>C	chr19	 10994932
7:134867701_A>G	chr7	134867701
10:102479343_T>C	chr10	102479343
13:30460957_T>C	chr13	 30460957
14:103342975_T>C	chr14	103342975
18:63903748_G>A	chr18	 63903748
18:63903757_A>G	chr18	 63903757
20:54651054_G>A	chr20	 54651054
6:30346789_T>G	chr6	 30346789
11:1734995_A>G	chr11	  1734995
16:27225082_G>A	chr16	 27225082
1:163339429_A>T	chr1	163339429
2:231170715_G>A	chr2	231170715
3:119523956_A>C	chr3	119523956
20:36528445_G>A	chr20	 36528445
20:36528446_A>C	chr20	 36528446
19:8316551_G>C	chr19	  8316551
11:18480471_T>C	chr11	 18480471
8:24918910_C>T	chr8	 24918910
12:120701729_C>G	chr12	120701729
7:94426694_A>G	chr7	 94426694
10:128109280_G>C	chr10	128109280
4:39499466_G>A	chr4	 39499466
